[
    {
        "name": "actor",
        "pattern": "[A-Za-z]{,10}\\s[A-Za-z]{,10}"
    },
    {
        "name": "greet",
        "pattern": "hey[^\\s]*"
    },
    {
        "name": "movie_with_actor",
        "pattern": "(with|starring|acting|acts)"
    },
    {
        "name": "release_year",
        "pattern": "[0-9]{4}"
    },
    {
        "name": "genre",
        "pattern": "(?i)(\\bAction\\b|\\bAdventure\\b|\\bAnimation\\b|\\bComedy\\b|\\bCrime\\b|\\bDocumentary\\b|\\bDrama\\b|\\bFamily\\b|\\bFantasy\\b|\\bHistory\\b|\\bHorror\\b|\\bMusic\\b|\\bMystery\\b|\\bRomance\\b|\\bScience\\ Fiction\\b|\\bTV\\ Movie\\b|\\bThriller\\b|\\bWar\\b|\\bWestern\\b|\\baction\\b|\\badventure\\b|\\banimation\\b|\\bcomedy\\b|\\bcrime\\b|\\bdocumentary\\b|\\bdrama\\b|\\bfamily\\b|\\bfantasy\\b|\\bhistory\\b|\\bhorror\\b|\\bmusic\\b|\\bmystery\\b|\\bromance\\b|\\bscience\\ Fiction\\b|\\btv\\ movie\\b|\\bthriller\\b|\\bwar\\b|\\bwestern\\b)"
    }
]